Rachel Robertson Data Analysis Portfolio - Tidy Tuesday Exercise
…
# Re fit the model
poly_tune_recipe <- 
  recipe(totality ~ lat + lon, data = train_data) %>% 
  step_poly(lat, lon, degree = 10.5)

poly_tune_wf2 <- workflow() %>%
  add_model(poly_model) %>%
  add_recipe(poly_tune_recipe)

poly_tune_fit <- poly_tune_wf2%>%
  fit(data = train_data) # use the workflow to fit the rf model to the data
tidy(poly_tune_fit)

# A tibble: 21 × 5
   term        estimate std.error statistic  p.value
   <chr>          <dbl>     <dbl>     <dbl>    <dbl>
 1 (Intercept)    185.       1.19   156.    0       
 2 lat_poly_1    2203.     428.       5.14  2.93e- 7
 3 lat_poly_2    3308.     274.      12.1   1.13e-32
 4 lat_poly_3    1901.     188.      10.1   1.40e-23
 5 lat_poly_4    -262.     149.      -1.76  7.83e- 2
 6 lat_poly_5    -395.     141.      -2.80  5.19e- 3
 7 lat_poly_6    -866.     112.      -7.72  1.69e-14
 8 lat_poly_7    -219.      91.9     -2.38  1.74e- 2
 9 lat_poly_8     757.      88.4      8.56  1.94e-17
10 lat_poly_9      29.0     79.1      0.367 7.14e- 1
# ℹ 11 more rows
…
