Rachel Robertson Data Analysis Portfolio - Fitting Exercise
…
# A tibble: 2 × 5
  term        estimate std.error statistic  p.value
  <chr>          <dbl>     <dbl>     <dbl>    <dbl>
1 (Intercept)    323.     199.        1.62 1.07e- 1
2 DOSE            58.2      5.19     11.2  2.69e-20

The intercept has a relatively large standard error, while the DOSE regression estimate has a more reasonable SE. This linear regression reflects a positive trend between dose and Y with a slope of 58.2. I will now use this model to predict the trial data. This will allow me to calculate the predictive power using the RMSE and R-squared metrics.

trial_fit1 <- 
  trials_workflow1 %>% 
  fit(data = train_data) # shows model to fit the data used from training from the aforementioned workflow
   predict(trial_fit1, test_data) #predict the outcome Y

# A tibble: 30 × 1
   .pred
   <dbl>
 1 1813.
 2 1813.
 3 2560.
 4 2560.
 5 2560.
 6 2560.
 7 2560.
 8 3307.
 9 3307.
10 3307.
# ℹ 20 more rows

trial_aug <- 
  augment(trial_fit1, test_data)
trial_aug %>%
  select("Y", "DOSE", "AGE", "SEX", "RACE", "WT", "HT")

# A tibble: 30 × 7
       Y  DOSE   AGE SEX   RACE     WT    HT
   <dbl> <dbl> <dbl> <fct> <fct> <dbl> <dbl>
 1 1789.  25      46 2     1      77.4  1.65
 2 2549.  25      46 1     1      83    1.78
 3 2353.  37.5    43 2     1      64.4  1.56
 4 2009.  37.5    19 1     2      86.1  1.91
 5 2934.  37.5    46 1     1      71.2  1.67
 6 2155.  37.5    30 1     1      85.4  1.86
 7 2424.  37.5    25 1     1      73.3  1.69
 8 2667.  50      45 2     1      80.7  1.66
 9 3004.  50      28 1     1      83.2  1.74
10 2746.  50      40 1     2      74.8  1.65
# ℹ 20 more rows
…
The standard error for the intercept, SEX2, RACE2, Race7, and HT are extremely large. This may be in part due to the large standard error of the original Y (outcome) variable. Dose, Age and Race2 have a positive trend with Y while the variables Sex2, Race7, Race88, WT, and HT have a negative trend with Y.

trial_fit2 <- 
  trials_workflow2 %>% 
  fit(data = train_data) # shows model to fit the data sued from training from the aforementioned workflow
   predict(trial_fit2, test_data) #predict the outcome Y

# A tibble: 30 × 1
   .pred
   <dbl>
 1 1646.
 2 1857.
 3 2838.
 4 2428.
 5 3070.
 6 2377.
 7 2859.
 8 3139.
 9 3381.
10 3984.
# ℹ 20 more rows

trial_aug <- 
  augment(trial_fit2, test_data)
trial_aug %>%
  select("Y", "DOSE", "AGE", "SEX", "RACE", "WT", "HT")

# A tibble: 30 × 7
       Y  DOSE   AGE SEX   RACE     WT    HT
   <dbl> <dbl> <dbl> <fct> <fct> <dbl> <dbl>
 1 1789.  25      46 2     1      77.4  1.65
 2 2549.  25      46 1     1      83    1.78
 3 2353.  37.5    43 2     1      64.4  1.56
 4 2009.  37.5    19 1     2      86.1  1.91
 5 2934.  37.5    46 1     1      71.2  1.67
 6 2155.  37.5    30 1     1      85.4  1.86
 7 2424.  37.5    25 1     1      73.3  1.69
 8 2667.  50      45 2     1      80.7  1.66
 9 3004.  50      28 1     1      83.2  1.74
10 2746.  50      40 1     2      74.8  1.65
# ℹ 20 more rows
…
There is a relatively high standard error for both the dose and intercept estimates. Both estimates are negative, meaning there is a negative trend between dose and sex.

We will now compute accuracy and ROC-AUC for this model.

lr_trial_fit <- 
  lr_trials_workflow %>% 
  fit(data = train_data)

predict(lr_trial_fit, new_data = test_data)

# A tibble: 30 × 1
   .pred_class
   <fct>      
 1 1          
 2 1          
 3 1          
 4 1          
 5 1          
 6 1          
 7 1          
 8 1          
 9 1          
10 1          
# ℹ 20 more rows

lr_trial_aug <- 
  augment(lr_trial_fit, test_data)

lr_trial_aug %>%
  select("Y", "DOSE", "AGE", "SEX", "RACE", "WT", "HT")

# A tibble: 30 × 7
       Y  DOSE   AGE SEX   RACE     WT    HT
   <dbl> <dbl> <dbl> <fct> <fct> <dbl> <dbl>
 1 1789.  25      46 2     1      77.4  1.65
 2 2549.  25      46 1     1      83    1.78
 3 2353.  37.5    43 2     1      64.4  1.56
 4 2009.  37.5    19 1     2      86.1  1.91
 5 2934.  37.5    46 1     1      71.2  1.67
 6 2155.  37.5    30 1     1      85.4  1.86
 7 2424.  37.5    25 1     1      73.3  1.69
 8 2667.  50      45 2     1      80.7  1.66
 9 3004.  50      28 1     1      83.2  1.74
10 2746.  50      40 1     2      74.8  1.65
# ℹ 20 more rows
…
The intercept now has a much higher estimate, of 60 and a smaller SE than the previous logistic regression model. Almost all of the variables have a negative trends with the Sex variables, except for Race7. In addition, all of the estimates for the predictor variables versus Sex (outcome) have a very high SE, meaning that they have a high variability.

We will also compute accuracy and ROC-AUC for this model.

lr_trial_fit2 <- 
  lr_trials_workflow2 %>% 
  fit(data = train_data)

Warning: glm.fit: algorithm did not converge

Warning: glm.fit: fitted probabilities numerically 0 or 1 occurred

predict(lr_trial_fit2, new_data = test_data)

# A tibble: 30 × 1
   .pred_class
   <fct>      
 1 2          
 2 1          
 3 2          
 4 1          
 5 1          
 6 1          
 7 1          
 8 2          
 9 1          
10 1          
# ℹ 20 more rows

lr_trial_aug2 <- 
  augment(lr_trial_fit2, test_data)

lr_trial_aug2 %>%
  select("Y", "DOSE", "AGE", "SEX", "RACE", "WT", "HT")

# A tibble: 30 × 7
       Y  DOSE   AGE SEX   RACE     WT    HT
   <dbl> <dbl> <dbl> <fct> <fct> <dbl> <dbl>
 1 1789.  25      46 2     1      77.4  1.65
 2 2549.  25      46 1     1      83    1.78
 3 2353.  37.5    43 2     1      64.4  1.56
 4 2009.  37.5    19 1     2      86.1  1.91
 5 2934.  37.5    46 1     1      71.2  1.67
 6 2155.  37.5    30 1     1      85.4  1.86
 7 2424.  37.5    25 1     1      73.3  1.69
 8 2667.  50      45 2     1      80.7  1.66
 9 3004.  50      28 1     1      83.2  1.74
10 2746.  50      40 1     2      74.8  1.65
# ℹ 20 more rows
…
Using RMSE to evaluate linear models

Now I will compute the predictions that are made by both the singular predictor model and the full model. RMSE will be calculated using the observed versus the predicted values. Lastly, we will compare these RMSE values to the RMSE of the null model as fitted using the null_model() function.

#Edited by Taylor Glass I noticed that the reason your RMSE values were not as expected is because you were using the test_data2 instead of the train_data2. This entire process should be using the train_data2 only, so I made those changes. The RMSE values are now 948, 702, and 627 respectively.

# Make predictions with the single predictor linear model
predict(single_lmfit, train_data2) #predict the outcome Y from the single predictor linear model (Y v. dose)

# A tibble: 90 × 1
   .pred
   <dbl>
 1 3207.
 2 1871.
 3 2539.
 4 1871.
 5 3207.
 6 1871.
 7 1871.
 8 1871.
 9 1871.
10 2539.
# ℹ 80 more rows

single_aug <- 
  augment(single_lmfit, train_data2) # add columns of interest to new data frame
single_aug %>%
  select("Y", "DOSE") # select columns to add to the data frame

# A tibble: 90 × 2
       Y  DOSE
   <dbl> <dbl>
 1 3004.  50  
 2 1347.  25  
 3 2772.  37.5
 4 2028.  25  
 5 2353.  50  
 6  826.  25  
 7 3866.  25  
 8 3126.  25  
 9 1108.  25  
10 2815.  37.5
# ℹ 80 more rows
…
# Calculate the RMSE of the single predictor model
rmse_sing <- rmse(data = single_aug,
             truth = Y,
             estimate = .pred)
  print(rmse_sing) # Evaluate RMSE based on the results

# A tibble: 1 × 3
  .metric .estimator .estimate
  <chr>   <chr>          <dbl>
1 rmse    standard        703.

# Make predictions with the full predictor linear model
predict(full_lmfit, train_data2) #predict the outcome Y from the FULL predictor linear model (Y v. all predictors)

# A tibble: 90 × 1
   .pred
   <dbl>
 1 3303.
 2 1953.
 3 2745.
 4 2081.
 5 2894.
 6 1265.
 7 2429.
 8 1976.
 9 1561.
10 2549.
# ℹ 80 more rows

full_aug <- 
  augment(full_lmfit, train_data2) # add predictions to new data frame
full_aug %>%
  select("Y", "DOSE", "AGE", "SEX", "WT", "HT") # select columns to add to the data frame

# A tibble: 90 × 6
       Y  DOSE   AGE SEX      WT    HT
   <dbl> <dbl> <dbl> <fct> <dbl> <dbl>
 1 3004.  50      28 1      83.2  1.74
 2 1347.  25      41 1      81    1.75
 3 2772.  37.5    28 1      78.3  1.72
 4 2028.  25      28 2      58.9  1.58
 5 2353.  50      37 1      99.1  1.78
 6  826.  25      30 1     105.   1.88
 7 3866.  25      23 1      65.3  1.65
 8 3126.  25      41 2      64.3  1.56
 9 1108.  25      48 2      79.5  1.62
10 2815.  37.5    26 1      84.5  1.77
# ℹ 80 more rows
…
blank_fit <- 
   workflow_blank %>% # add the workflow to the fit
  fit(data = train_data2) # fit Y to dose using ONLY the training data
tidy(blank_fit) # produce tibble to organize the resulting linear regression fit

# A tibble: 1 × 1
  value
  <dbl>
1 2509.

predict(blank_fit, train_data2) #predict the outcome Y from the BLANK predictor linear model

# A tibble: 90 × 1
   .pred
   <dbl>
 1 2509.
 2 2509.
 3 2509.
 4 2509.
 5 2509.
 6 2509.
 7 2509.
 8 2509.
 9 2509.
10 2509.
# ℹ 80 more rows

blank_aug <- 
  augment(blank_fit, train_data2) # add predictions to new data frame
blank_aug %>%
  select("Y", "DOSE", "AGE", "SEX", "WT", "HT") # select columns to add to the data frame

# A tibble: 90 × 6
       Y  DOSE   AGE SEX      WT    HT
   <dbl> <dbl> <dbl> <fct> <dbl> <dbl>
 1 3004.  50      28 1      83.2  1.74
 2 1347.  25      41 1      81    1.75
 3 2772.  37.5    28 1      78.3  1.72
 4 2028.  25      28 2      58.9  1.58
 5 2353.  50      37 1      99.1  1.78
 6  826.  25      30 1     105.   1.88
 7 3866.  25      23 1      65.3  1.65
 8 3126.  25      41 2      64.3  1.56
 9 1108.  25      48 2      79.5  1.62
10 2815.  37.5    26 1      84.5  1.77
# ℹ 80 more rows
…
